{
  "username": "Oak",
  "password": "tja",
  "staff-rights": "ADMINISTRATOR",
  "position": {
    "x": 3085,
    "y": 3495,
    "z": 0
  },
  "spell-book": "NORMAL",
  "auto-retaliate": false,
  "xp-locked": false,
  "clanchat": "Elvarg",
  "preserve": false,
  "rigour": false,
  "augury": false,
  "has-veng": false,
  "last-veng": 0,
  "running": true,
  "run-energy": 100,
  "spec-percentage": 100,
  "recoil-damage": 0,
  "poison-damage": 0,
  "poison-immunity": 0,
  "fire-immunity": 0,
  "teleblock-timer": 0,
  "prayerblock-timer": 0,
  "skull-timer": -96843,
  "target-kills": 0,
  "normal-kills": 0,
  "deaths": 0,
  "pkp": 0,
  "inventory": [
    {
      "id": 249,
      "amount": 1,
      "slot": 0
    },
    {
      "id": 5292,
      "amount": 3,
      "slot": 1
    },
    {
      "id": 5301,
      "amount": 3,
      "slot": 2
    },
    {
      "id": 5293,
      "amount": 3,
      "slot": 3
    },
    {
      "id": 5300,
      "amount": 2,
      "slot": 4
    },
    {
      "id": 5299,
      "amount": 1,
      "slot": 5
    },
    {
      "id": 5297,
      "amount": 2,
      "slot": 6
    },
    {
      "id": 5298,
      "amount": 1,
      "slot": 7
    },
    {
      "id": 5294,
      "amount": 2,
      "slot": 8
    },
    {
      "id": 5296,
      "amount": 2,
      "slot": 9
    },
    {
      "id": 5303,
      "amount": 1,
      "slot": 10
    },
    {
      "id": 5291,
      "amount": 2,
      "slot": 11
    },
    {
      "id": -1,
      "amount": 0,
      "slot": 12
    },
    {
      "id": -1,
      "amount": 0,
      "slot": 13
    },
    {
      "id": -1,
      "amount": 0,
      "slot": 14
    },
    {
      "id": -1,
      "amount": 0,
      "slot": 15
    },
    {
      "id": -1,
      "amount": 0,
      "slot": 16
    },
    {
      "id": -1,
      "amount": 0,
      "slot": 17
    },
    {
      "id": -1,
      "amount": 0,
      "slot": 18
    },
    {
      "id": -1,
      "amount": 0,
      "slot": 19
    },
    {
      "id": -1,
      "amount": 0,
      "slot": 20
    },
    {
      "id": -1,
      "amount": 0,
      "slot": 21
    },
    {
      "id": -1,
      "amount": 0,
      "slot": 22
    },
    {
      "id": -1,
      "amount": 0,
      "slot": 23
    },
    {
      "id": -1,
      "amount": 0,
      "slot": 24
    },
    {
      "id": -1,
      "amount": 0,
      "slot": 25
    },
    {
      "id": -1,
      "amount": 0,
      "slot": 26
    },
    {
      "id": -1,
      "amount": 0,
      "slot": 27
    }
  ],
  "equipment": [
    {
      "id": 1042,
      "amount": 1,
      "slot": 0
    },
    {
      "id": -1,
      "amount": 0,
      "slot": 0
    },
    {
      "id": -1,
      "amount": 0,
      "slot": 0
    },
    {
      "id": 12006,
      "amount": 1,
      "slot": 3
    },
    {
      "id": -1,
      "amount": 0,
      "slot": 0
    },
    {
      "id": -1,
      "amount": 0,
      "slot": 0
    },
    {
      "id": -1,
      "amount": 0,
      "slot": 0
    },
    {
      "id": -1,
      "amount": 0,
      "slot": 0
    },
    {
      "id": -1,
      "amount": 0,
      "slot": 0
    },
    {
      "id": -1,
      "amount": 0,
      "slot": 0
    },
    {
      "id": -1,
      "amount": 0,
      "slot": 0
    },
    {
      "id": -1,
      "amount": 0,
      "slot": 0
    },
    {
      "id": -1,
      "amount": 0,
      "slot": 0
    },
    {
      "id": -1,
      "amount": 0,
      "slot": 13
    }
  ],
  "appearance": [
    0,
    3,
    18,
    26,
    34,
    38,
    42,
    14,
    2,
    14,
    5,
    4,
    0
  ],
  "skills": {
    "level": [
      99,
      99,
      99,
      95,
      99,
      99,
      99,
      99,
      99,
      99,
      99,
      99,
      99,
      99,
      99,
      99,
      99,
      99,
      99,
      99,
      99,
      99,
      99
    ],
    "maxLevel": [
      99,
      99,
      99,
      99,
      99,
      99,
      99,
      99,
      99,
      99,
      99,
      99,
      99,
      99,
      99,
      99,
      99,
      99,
      99,
      99,
      99,
      99,
      99
    ],
    "experience": [
      13034917,
      13034431,
      13034431,
      13034755,
      13034431,
      13040771,
      13034431,
      13034431,
      13034431,
      13034431,
      13034431,
      13034431,
      13034431,
      13034431,
      13034431,
      13034431,
      13034431,
      13044571,
      13034431,
      13034431,
      13034431,
      13034431,
      13034431
    ]
  },
  "friends": [],
  "ignores": [],
  "bank-0": [
    {
      "id": 995,
      "amount": 500000000,
      "slot": 0
    },
    {
      "id": 4151,
      "amount": 1,
      "slot": 1
    },
    {
      "id": 4153,
      "amount": 1,
      "slot": 2
    },
    {
      "id": 1215,
      "amount": 1,
      "slot": 3
    },
    {
      "id": 9185,
      "amount": 1,
      "slot": 4
    },
    {
      "id": 11235,
      "amount": 1,
      "slot": 5
    },
    {
      "id": 11212,
      "amount": 1000,
      "slot": 6
    },
    {
      "id": 385,
      "amount": 500,
      "slot": 7
    },
    {
      "id": 2440,
      "amount": 100,
      "slot": 8
    },
    {
      "id": 2436,
      "amount": 100,
      "slot": 9
    },
    {
      "id": 2442,
      "amount": 100,
      "slot": 10
    },
    {
      "id": 2444,
      "amount": 100,
      "slot": 11
    },
    {
      "id": 2434,
      "amount": 100,
      "slot": 12
    },
    {
      "id": 3040,
      "amount": 100,
      "slot": 13
    },
    {
      "id": 2430,
      "amount": 100,
      "slot": 14
    },
    {
      "id": 1163,
      "amount": 1,
      "slot": 15
    },
    {
      "id": 1127,
      "amount": 1,
      "slot": 16
    },
    {
      "id": 1079,
      "amount": 1,
      "slot": 17
    },
    {
      "id": 12954,
      "amount": 1,
      "slot": 18
    },
    {
      "id": 4089,
      "amount": 1,
      "slot": 19
    },
    {
      "id": 4091,
      "amount": 1,
      "slot": 20
    },
    {
      "id": 4093,
      "amount": 1,
      "slot": 21
    },
    {
      "id": 4095,
      "amount": 1,
      "slot": 22
    },
    {
      "id": 4097,
      "amount": 1,
      "slot": 23
    },
    {
      "id": 2503,
      "amount": 1,
      "slot": 24
    },
    {
      "id": 2497,
      "amount": 1,
      "slot": 25
    },
    {
      "id": 2491,
      "amount": 1,
      "slot": 26
    },
    {
      "id": 563,
      "amount": 1,
      "slot": 27
    },
    {
      "id": 562,
      "amount": 1,
      "slot": 28
    },
    {
      "id": 21400,
      "amount": 2,
      "slot": 29
    },
    {
      "id": 21455,
      "amount": 1,
      "slot": 30
    },
    {
      "id": 21454,
      "amount": 1,
      "slot": 31
    },
    {
      "id": 21420,
      "amount": 1,
      "slot": 32
    },
    {
      "id": 21200,
      "amount": 1,
      "slot": 33
    },
    {
      "id": 21399,
      "amount": 1,
      "slot": 34
    },
    {
      "id": 21350,
      "amount": 1,
      "slot": 35
    },
    {
      "id": 21250,
      "amount": 1,
      "slot": 36
    },
    {
      "id": 21370,
      "amount": 1,
      "slot": 37
    },
    {
      "id": 21287,
      "amount": 1,
      "slot": 38
    },
    {
      "id": 21395,
      "amount": 1,
      "slot": 39
    },
    {
      "id": 22150,
      "amount": 1,
      "slot": 40
    },
    {
      "id": 22050,
      "amount": 1,
      "slot": 41
    },
    {
      "id": 21390,
      "amount": 1,
      "slot": 42
    },
    {
      "id": 21349,
      "amount": 1,
      "slot": 43
    },
    {
      "id": 21330,
      "amount": 1,
      "slot": 44
    },
    {
      "id": 21342,
      "amount": 1,
      "slot": 45
    },
    {
      "id": 21310,
      "amount": 1,
      "slot": 46
    },
    {
      "id": 21315,
      "amount": 1,
      "slot": 47
    },
    {
      "id": 590,
      "amount": 1,
      "slot": 48
    },
    {
      "id": 17829,
      "amount": 1,
      "slot": 49
    },
    {
      "id": 6613,
      "amount": 1,
      "slot": 50
    },
    {
      "id": 14794,
      "amount": 1,
      "slot": 51
    },
    {
      "id": 5308,
      "amount": 1,
      "slot": 52
    },
    {
      "id": 18650,
      "amount": 1,
      "slot": 53
    },
    {
      "id": 5512,
      "amount": 1,
      "slot": 54
    },
    {
      "id": 1654,
      "amount": 1,
      "slot": 55
    },
    {
      "id": 6840,
      "amount": 1,
      "slot": 56
    },
    {
      "id": 15300,
      "amount": 1,
      "slot": 57
    },
    {
      "id": 6157,
      "amount": 1,
      "slot": 58
    },
    {
      "id": 7990,
      "amount": 1,
      "slot": 59
    },
    {
      "id": 3299,
      "amount": 1,
      "slot": 60
    },
    {
      "id": 10978,
      "amount": 1,
      "slot": 61
    },
    {
      "id": 6004,
      "amount": 1,
      "slot": 62
    },
    {
      "id": 17199,
      "amount": 1,
      "slot": 63
    },
    {
      "id": 15667,
      "amount": 1,
      "slot": 64
    },
    {
      "id": 16638,
      "amount": 1,
      "slot": 65
    },
    {
      "id": 9046,
      "amount": 1,
      "slot": 66
    },
    {
      "id": 9230,
      "amount": 1,
      "slot": 67
    },
    {
      "id": 15118,
      "amount": 1,
      "slot": 68
    },
    {
      "id": 7080,
      "amount": 1,
      "slot": 69
    },
    {
      "id": 794,
      "amount": 1,
      "slot": 70
    },
    {
      "id": 9718,
      "amount": 1,
      "slot": 71
    },
    {
      "id": 8117,
      "amount": 1,
      "slot": 72
    },
    {
      "id": 9839,
      "amount": 1,
      "slot": 73
    },
    {
      "id": 14598,
      "amount": 1,
      "slot": 74
    },
    {
      "id": 14020,
      "amount": 1,
      "slot": 75
    },
    {
      "id": 13748,
      "amount": 1,
      "slot": 76
    },
    {
      "id": 12568,
      "amount": 1,
      "slot": 77
    },
    {
      "id": 9244,
      "amount": 5000,
      "slot": 78
    }
  ],
  "bank-1": [],
  "bank-2": [],
  "bank-3": [],
  "bank-4": [],
  "bank-5": [],
  "bank-6": [],
  "bank-7": [],
  "bank-8": [],
  "bank-9": []
}